{
  "data": [
    {"name" : "Hot Dog", "count" : "2", "price" : "$6.00"},
    {"name" : "Pizza", "count" : "10",  "price" : "$15.00"},
    {"name" : "Chocolate pie", "count" : "1", "price" : "$3.00"},
    {"name" : "Coffee", "count" : "40", "price" : "$20.00"},
    {"name" : "Salad", "count" : "8", "price" : "$40.00"},
    {"name" : "Cupcake", "count" : "3", "price" : "$6.00"}
  ]
}